El juego completo
…
Estimar el efecto causal

Usando ipw

#> # A tibble: 1 × 7
#>   term   estimate std.error statistic  p.value conf.low
#>   <chr>     <dbl>     <dbl>     <dbl>    <dbl>    <dbl>
#> 1 netTR…    -12.5     0.624     -20.1 5.50e-81    -13.8
#> # ℹ 1 more variable: conf.high <dbl>

Pero una vez se ha hecho el ipw, la varianza del estimador que da el modelo lm no es correcta, hay que calcularla usando otras técnicas, como estimadores robustos o bootstrap. Usaremos bootstrap

#> # Bootstrap sampling with apparent sample 
#> # A tibble: 1,001 × 2
#>    splits             id           
#>    <list>             <chr>        
#>  1 <split [1752/644]> Bootstrap0001
#>  2 <split [1752/647]> Bootstrap0002
#>  3 <split [1752/641]> Bootstrap0003
#>  4 <split [1752/648]> Bootstrap0004
#>  5 <split [1752/647]> Bootstrap0005
#>  6 <split [1752/646]> Bootstrap0006
#>  7 <split [1752/635]> Bootstrap0007
#>  8 <split [1752/659]> Bootstrap0008
#>  9 <split [1752/662]> Bootstrap0009
#> 10 <split [1752/647]> Bootstrap0010
#> # ℹ 991 more rows

#> # Bootstrap sampling with apparent sample 
#> # A tibble: 1,001 × 3
#>    splits             id            boot_fits       
#>    <list>             <chr>         <list>          
#>  1 <split [1752/644]> Bootstrap0001 <tibble [2 × 5]>
#>  2 <split [1752/647]> Bootstrap0002 <tibble [2 × 5]>
#>  3 <split [1752/641]> Bootstrap0003 <tibble [2 × 5]>
#>  4 <split [1752/648]> Bootstrap0004 <tibble [2 × 5]>
#>  5 <split [1752/647]> Bootstrap0005 <tibble [2 × 5]>
#>  6 <split [1752/646]> Bootstrap0006 <tibble [2 × 5]>
#>  7 <split [1752/635]> Bootstrap0007 <tibble [2 × 5]>
#>  8 <split [1752/659]> Bootstrap0008 <tibble [2 × 5]>
#>  9 <split [1752/662]> Bootstrap0009 <tibble [2 × 5]>
#> 10 <split [1752/647]> Bootstrap0010 <tibble [2 × 5]>
#> # ℹ 991 more rows
…
